%YAML 1.1
%TAG !u! tag:unity3d.com,2011:
--- !u!1045 &1
EditorBuildSettings:
  m_ObjectHideFlags: 0
  serializedVersion: 2
  m_Scenes:
  - enabled: 1
    path: Assets/0_Dev Assets/3_Scenes/1_High Fidelity/PersistentScene.unity
    guid: 32e9d96e44f16244ea1c6e95de29e12a
  - enabled: 1
    path: Assets/0_Dev Assets/3_Scenes/1_High Fidelity/FirstPlayerSetup_High.unity
    guid: f1fd65c3752687e41aa3658d2c2e0752
  - enabled: 1
    path: Assets/0_Dev Assets/3_Scenes/1_High Fidelity/Game_High.unity
    guid: 0c81f4a086bc20d4792f2d986dfa6136
  m_configObjects: {}
